{
	"c2array":true,
	"size":[ 121, 2, 1],
	"data":[
		[["afraid"],[0]],
		[["ambiguous"],[0]],
		[["anxiety"],[0]],
		[["apathy"],[0]],
		[["apprehension"],[0]],
		[["avoid"],[0]],
		[["backward"],[0]],
		[["barrier"],[0]],
		[["complicate"],[0]],
		[["confuse"],[0]],
		[["daunting"],[0]],
		[["delay"],[0]],
		[["difficult"],[0]],
        [["discourage"],[0]],
        [["disorder"],[0]],
        [["distracted"],[0]],
        [["distress"],[0]],
        [["doubt"],[0]],
        [["dread"],[0]],
        [["escape"],[0]],
        [["evade"],[0]],
        [["excuses"],[0]],
        [["falter"],[0]],
        [["fear"],[0]],
        [["flee"],[0]],
        [["frozen"],[0]],
        [["frustration"],[0]],
        [["halfhearted"],[0]],
        [["hazy"],[0]],
        [["hesitate"],[0]],
        [["hindrance"],[0]],
        [["idle"],[0]],
        [["indifference"],[0]],
        [["inhibition"],[0]],
        [["intimidation"],[0]],
        [["later"],[0]],
        [["lazy"],[0]],
        [["limit"],[0]],
        [["meek"],[0]],
        [["neglect"],[0]],
        [["nervous"],[0]],
        [["obstacle"],[0]],
        [["panic"],[0]],
        [["passive"],[0]],
        [["perhaps"],[0]],
        [["postpone"],[0]],
        [["procrastinate"],[0]],
        [["quit"],[0]],
        [["regret"],[0]],
        [["retreat"],[0]],
        [["reluctance"],[0]],
        [["resignation"],[0]],
        [["setback"],[0]],
        [["stall"],[0]],
        [["stagnant"],[0]],
        [["stuck"],[0]],
        [["surrender"],[0]],
        [["suspend"],[0]],
        [["timid"],[0]],
        [["turmoil"],[0]],
        [["uncertain"],[0]],
        [["uneasy"],[0]],
        [["unsure"],[0]],
        [["wait"],[0]],
        [["waste"],[0]],
        [["worry"],[0]],
        [["achieve"],[1]],
        [["act"],[1]],
        [["action"],[1]],
        [["advance"],[1]],
        [["adventurous"],[1]],
        [["ambition"],[1]],
        [["believe"],[1]],
        [["bold"],[1]],
        [["brave"],[1]],
        [["breakthrough"],[1]],
        [["certain"],[1]],
        [["champion"],[1]],
        [["choose"],[1]],
        [["commit"],[1]],
        [["confident"],[1]],
        [["conviction"],[1]],
        [["courage"],[1]],
        [["daring"],[1]],
        [["dedication"],[1]],
        [["definite"],[1]],
        [["determined"],[1]],
        [["development"],[1]],
        [["direction"],[1]],
        [["dream"],[1]],
        [["driven"],[1]],
        [["doubtless"],[1]],
        [["enthusiastic"],[1]],
        [["fearless"],[1]],
        [["finish"],[1]],
        [["gain"],[1]],
        [["go"],[1]],
        [["goal"],[1]],
        [["growth"],[1]],
        [["improve"],[1]],
        [["inspiration"],[1]],
        [["motivation"],[1]],
        [["move"],[1]],
        [["now"],[1]],
        [["opportunity"],[1]],
        [["passion"],[1]],
        [["perseverance"],[1]],
        [["possible"],[1]],
        [["progress"],[1]],
        [["purpose"],[1]],
        [["push"],[1]],
        [["rise"],[1]],
        [["seize"],[1]],
        [["spunk"],[1]],
        [["succeed"],[1]],
        [["sure"],[1]],
        [["want"],[1]],
        [["willful"],[1]],
        [["win"],[1]],
        [["zeal"],[1]],
        [["zest"],[1]]
    ]
}